<svg width="12" height="12" viewBox="0 0 12 12" fill="none" xmlns="http://www.w3.org/2000/svg">
<path d="M5.99984 0.666656L5.05984 1.60666L8.77984 5.33332H0.666504V6.66666H8.77984L5.05984 10.3933L5.99984 11.3333L11.3332 5.99999L5.99984 0.666656Z" fill="white"/>
</svg>
